\relax 
\citation{WCL}
\citation{CL}
\citation{wiki:comparacion_de_traducciones}
\citation{wiki:comparacion_de_traducciones}
\@writefile{toc}{\contentsline {chapter}{\numberline {2}Fundamentals}{5}}
\@writefile{lof}{\addvspace {10\p@ }}
\@writefile{lot}{\addvspace {10\p@ }}
\@writefile{toc}{\contentsline {section}{\numberline {2.1}Computational linguistics}{5}}
\@writefile{toc}{\contentsline {section}{\numberline {2.2}Machine translation approaches}{5}}
\@writefile{toc}{\contentsline {subsection}{\numberline {2.2.1}Rule based}{5}}
\@writefile{toc}{\contentsline {subsection}{\numberline {2.2.2}\Gls {corp} based}{5}}
\citation{pivot:language}
\citation{Babych:2014}
\@writefile{toc}{\contentsline {subsection}{\numberline {2.2.3}Interlingua}{6}}
\@writefile{toc}{\contentsline {subsection}{\numberline {2.2.4}Statistical}{6}}
\@writefile{toc}{\contentsline {subsection}{\numberline {2.2.5}Neural Translation}{6}}
\citation{papineni:2002}
\@writefile{toc}{\contentsline {section}{\numberline {2.3}In deepth look at \acrshort {nmt}}{7}}
\@writefile{toc}{\contentsline {subsection}{\numberline {2.3.1}Artificial Neural Networks}{7}}
\@writefile{toc}{\contentsline {subsubsection}{Neurons}{7}}
\@writefile{toc}{\contentsline {subsubsection}{Perceptron}{7}}
\@writefile{toc}{\contentsline {subsubsection}{Sigmoid, Tanh and ReLU Neurons}{7}}
\@writefile{toc}{\contentsline {subsection}{\numberline {2.3.2}Training \acrshort {ann}}{7}}
\@writefile{toc}{\contentsline {subsubsection}{Gradiant descent}{7}}
\@writefile{toc}{\contentsline {subsubsection}{Backpropagation}{7}}
\@writefile{toc}{\contentsline {subsubsection}{Optimizers and hiper-parameters}{7}}
\@writefile{toc}{\contentsline {subsection}{\numberline {2.3.3}CNN}{7}}
\@writefile{toc}{\contentsline {subsection}{\numberline {2.3.4}RNN}{7}}
\@writefile{toc}{\contentsline {subsubsection}{LSTM}{7}}
\@writefile{toc}{\contentsline {subsection}{\numberline {2.3.5}\acrshort {nmt} Datasets}{7}}
\@writefile{toc}{\contentsline {subsubsection}{Tokenization and Detokenization of data}{7}}
\citation{cambria:2014}
\citation{nlp:DL:2018}
\citation{collobert:2011}
\citation{nlp:DL:2018}
\citation{nlp:DL:2018}
\@writefile{toc}{\contentsline {subsection}{\numberline {2.3.6}Evaluaci\'on de traducci\'on autom\'atica}{8}}
\@writefile{toc}{\contentsline {section}{\numberline {2.4}Antecedentes}{8}}
\@writefile{toc}{\contentsline {subsection}{\numberline {2.4.1}Procesamiento de Lenguaje Natural basado en \textit  {Deep Learning}, Tendencias Recientes }{8}}
\citation{cho}
\citation{sutskever}
\citation{wu}
\citation{gehring}
\citation{vaswani}
\citation{yamamoto:2016}
\citation{callison:2006}
\@writefile{lof}{\contentsline {figure}{\numberline {2.1}{\ignorespaces Porcentaje de art\'iculos basados en \textit  {Deep Learning}; en los ultimos 6 a\~nos \cite  {nlp:DL:2018}.\relax }}{9}}
\providecommand*\caption@xref[2]{\@setref\relax\@undefined{#1}}
\newlabel{papers:DL:NLP}{{2.1}{9}}
\@writefile{toc}{\contentsline {subsection}{\numberline {2.4.2}Desempe\~no de algunos modelos de \textit  {Deep Learning} en Traducci\'on Autom\'atica (ingl\'es$\rightarrow $frances)}{9}}
\@writefile{lot}{\contentsline {table}{\numberline {2.1}{\ignorespaces Desempe\~no (en puntaje BLEU) de algunos modelos de NMT ingl\'es$\rightarrow $frances\relax }}{9}}
\newlabel{tabla:ingles:frances}{{2.1}{9}}
\@writefile{toc}{\contentsline {subsection}{\numberline {2.4.3}Normalizaci\'on ortogr\'afica de japon\'es para SMT}{9}}
\citation{yamamoto:2016}
\citation{yamamoto:2016}
\citation{yamamoto:2016}
\@writefile{lot}{\contentsline {table}{\numberline {2.2}{\ignorespaces Comparativa de puntajes BLEU a partir de \textit  {corpus} l\'inea base, normalizado y desnormalizado \cite  {yamamoto:2016}\relax }}{10}}
\newlabel{normalizacion:ort}{{2.2}{10}}
\@setckpt{marco_teorico_eng}{
\setcounter{page}{11}
\setcounter{equation}{0}
\setcounter{enumi}{0}
\setcounter{enumii}{0}
\setcounter{enumiii}{0}
\setcounter{enumiv}{0}
\setcounter{footnote}{0}
\setcounter{mpfootnote}{0}
\setcounter{part}{0}
\setcounter{chapter}{2}
\setcounter{section}{4}
\setcounter{subsection}{3}
\setcounter{subsubsection}{0}
\setcounter{paragraph}{0}
\setcounter{subparagraph}{0}
\setcounter{figure}{1}
\setcounter{table}{2}
\setcounter{parentequation}{0}
\setcounter{ALC@unique}{0}
\setcounter{ALC@line}{0}
\setcounter{ALC@rem}{0}
\setcounter{ALC@depth}{0}
\setcounter{float@type}{8}
\setcounter{algorithm}{0}
\setcounter{LT@tables}{0}
\setcounter{LT@chunks}{0}
\setcounter{@pps}{0}
\setcounter{@ppsavesec}{0}
\setcounter{@ppsaveapp}{0}
\setcounter{subfigure}{0}
\setcounter{lofdepth}{1}
\setcounter{subtable}{0}
\setcounter{lotdepth}{1}
\setcounter{ContinuedFloat}{0}
\setcounter{AM@survey}{0}
\setcounter{pp@next@reset}{0}
\setcounter{su@anzahl}{0}
}
