\relax 
\newlabel{glosario}{{}{1}}
\providecommand\@newglossary[4]{}
\@newglossary{main}{glg}{gls}{glo}
\@newglossary{acronym}{alg}{acr}{acn}
\providecommand\@glsorder[1]{}
\providecommand\@istfilename[1]{}
\@istfilename{Thesis_doc_main.ist}
\@glsorder{word}
\citation{nlp:DL:2018}
\@writefile{toc}{\contentsline {chapter}{List of Figures}{iii}}
\citation{yamamoto:2016}
\@writefile{toc}{\contentsline {chapter}{List of Tables}{v}}
\@input{introduction_eng.aux}
\@input{marco_teorico_eng.aux}
\gdef \LT@i {\LT@entry 
    {1}{104.8546pt}\LT@entry 
    {1}{246.00238pt}}
\bibcite{sre:historia}{1}
\bibcite{sre:hermanamientos}{2}
\bibcite{cambria:2014}{3}
\bibcite{WCL}{4}
\bibcite{CL}{5}
\bibcite{wiki:comparacion_de_traducciones}{6}
\bibcite{pivot:language}{7}
\bibcite{Babych:2014}{8}
\@writefile{toc}{\contentsline {chapter}{Bibliography}{15}}
\bibcite{papineni:2002}{9}
\bibcite{nlp:DL:2018}{10}
\bibcite{collobert:2011}{11}
\bibcite{cho}{12}
\bibcite{sutskever}{13}
\bibcite{wu}{14}
\bibcite{gehring}{15}
\bibcite{vaswani}{16}
\bibcite{yamamoto:2016}{17}
\bibcite{callison:2006}{18}
